<svg xmlns="http://www.w3.org/2000/svg" xmlns:xlink="http://www.w3.org/1999/xlink" width="222.036" height="222.036" viewBox="0 0 222.036 222.036">
  <defs>
    <filter id="Caminho_1234" x="0" y="0" width="222.036" height="222.036" filterUnits="userSpaceOnUse">
      <feOffset dy="15" input="SourceAlpha"/>
      <feGaussianBlur stdDeviation="15" result="blur"/>
      <feFlood flood-color="#262a30" flood-opacity="0.341"/>
      <feComposite operator="in" in2="blur"/>
      <feComposite in="SourceGraphic"/>
    </filter>
  </defs>
  <g id="Grupo_930" data-name="Grupo 930" transform="translate(-1147.651 -3181.082)">
    <g transform="matrix(1, 0, 0, 1, 1147.65, 3181.08)" filter="url(#Caminho_1234)">
      <path id="Caminho_1234-2" data-name="Caminho 1234" d="M536.572,221.55a64.431,64.431,0,1,1,14.256,90A64.429,64.429,0,0,1,536.572,221.55Z" transform="translate(-477.68 -163.4)" fill="#391d4d" stroke="#7ccdff" stroke-width="3"/>
    </g>
    <g id="network_3_" data-name="network (3)" transform="translate(1239.613 3257.502)">
      <g id="Grupo_7" data-name="Grupo 7" transform="translate(-5.002 -5.002)">
        <g id="Grupo_6" data-name="Grupo 6">
          <path id="Caminho_75" data-name="Caminho 75" d="M362.665,151.36v2.027a2.026,2.026,0,1,0,4.053,0V151.36a2.026,2.026,0,1,0-4.053,0Z" transform="translate(-328.214 -135.148)" fill="#7ccdff"/>
          <path id="Caminho_76" data-name="Caminho 76" d="M322.024,89.387h2.026a2.026,2.026,0,1,0,0-4.053h-2.026a2.026,2.026,0,0,0,0,4.053Z" transform="translate(-289.6 -77.228)" fill="#7ccdff"/>
          <path id="Caminho_77" data-name="Caminho 77" d="M110.718,302.72v-2.026a2.026,2.026,0,0,0-4.053,0v2.026a2.026,2.026,0,1,0,4.053,0Z" transform="translate(-96.533 -270.296)" fill="#7ccdff"/>
          <path id="Caminho_78" data-name="Caminho 78" d="M132.052,384h-2.026a2.027,2.027,0,0,0,0,4.053h2.026a2.027,2.027,0,0,0,0-4.053Z" transform="translate(-115.84 -347.523)" fill="#7ccdff"/>
          <path id="Caminho_79" data-name="Caminho 79" d="M256.963,260.054h-6.086v-2.026a2.026,2.026,0,1,0-4.053,0v2.026h-6.085a4.052,4.052,0,0,0-4.047,4.047v4.059h0a2.027,2.027,0,1,0,0,4.053h0v4.059a4.052,4.052,0,0,0,4.047,4.047h16.224a4.052,4.052,0,0,0,4.047-4.047V264.1A4.052,4.052,0,0,0,256.963,260.054Zm-16.224,2.026v2.026h0Zm.006,14.192V270.2c0-.005,0-.011,0-.016s0-.011,0-.016v-6.063l16.214-.006.006,12.165Z" transform="translate(-212.373 -231.683)" fill="#7ccdff"/>
          <path id="Caminho_80" data-name="Caminho 80" d="M24.318,16.218V12.159a2.027,2.027,0,0,0,0-4.053V4.047A4.052,4.052,0,0,0,20.271,0H4.047A4.052,4.052,0,0,0,0,4.047V16.218a4.052,4.052,0,0,0,4.047,4.047h6.085v2.026a2.026,2.026,0,0,0,4.053,0V20.265h6.086A4.052,4.052,0,0,0,24.318,16.218ZM4.047,4.053h0l0-2.026Zm.006,12.165,0-12.165,16.214-.006,0,6.022c0,.021,0,.042,0,.064s0,.043,0,.065l0,6.015Z" fill="#7ccdff"/>
        </g>
      </g>
    </g>
  </g>
</svg>
