<svg xmlns="http://www.w3.org/2000/svg" width="19.896" height="19.896" viewBox="0 0 19.896 19.896">
  <g id="cursor" transform="translate(1.653 1.653)">
    <g id="Grupo_205" data-name="Grupo 205">
      <path id="Caminho_209" data-name="Caminho 209" d="M11.1,8.894,16,5.721,0,0,5.721,16l3.173-4.9,3.435,3.435a1.557,1.557,0,0,0,2.2-2.2Z" fill="none" stroke="#fe9791" stroke-width="2"/>
    </g>
  </g>
</svg>
