<svg xmlns="http://www.w3.org/2000/svg" width="65.549" height="67.681" viewBox="0 0 65.549 67.681">
  <g id="Dashboard" transform="translate(4 4)">
    <line id="Linha_6" data-name="Linha 6" y2="34.103" transform="translate(0 25.577)" fill="none" stroke="#fe9791" stroke-linecap="round" stroke-width="8"/>
    <line id="Linha_7" data-name="Linha 7" y2="59.681" transform="translate(19.183)" fill="none" stroke="#fe9791" stroke-linecap="round" stroke-width="8"/>
    <line id="Linha_8" data-name="Linha 8" y2="25.578" transform="translate(38.366 34.103)" fill="none" stroke="#fe9791" stroke-linecap="round" stroke-width="8"/>
    <line id="Linha_9" data-name="Linha 9" y2="46.892" transform="translate(57.549 12.789)" fill="none" stroke="#fe9791" stroke-linecap="round" stroke-width="8"/>
  </g>
</svg>
