<svg xmlns="http://www.w3.org/2000/svg" width="22" height="16" viewBox="0 0 22 16">
  <g id="Grupo_935" data-name="Grupo 935" transform="translate(-3 -14)">
    <g id="Retângulo_12" data-name="Retângulo 12" transform="translate(3 14)" fill="none" stroke="#8d4bba" stroke-width="2">
      <rect width="22" height="16" stroke="none"/>
      <rect x="1" y="1" width="20" height="14" fill="none"/>
    </g>
    <path id="Caminho_100" data-name="Caminho 100" d="M6817.352,4510.454l10.094,7.322,9.846-7.322" transform="translate(-6813.365 -4495.393)" fill="none" stroke="#8d4bba" stroke-width="2"/>
  </g>
</svg>
