<svg xmlns="http://www.w3.org/2000/svg" width="11.907" height="25.515" viewBox="0 0 11.907 25.515">
  <g id="facebook-letter-logo" transform="translate(0)">
    <path id="Facebook" d="M117.27,4.942V8.455H114.7v4.3h2.574V25.516h5.287V12.751H126.1s.332-2.06.493-4.312h-4.021V5.5a1.248,1.248,0,0,1,1.146-1.029h2.88V0h-3.916C117.139,0,117.27,4.3,117.27,4.942Z" transform="translate(-114.696 -0.001)" fill="#fff"/>
  </g>
</svg>
