<svg xmlns="http://www.w3.org/2000/svg" xmlns:xlink="http://www.w3.org/1999/xlink" width="57" height="71" viewBox="0 0 57 71">
  <defs>
    <clipPath id="clip-Prancheta_12">
      <rect width="57" height="71"/>
    </clipPath>
  </defs>
  <g id="Prancheta_12" data-name="Prancheta – 12" clip-path="url(#clip-Prancheta_12)">
    <g id="chemistry" transform="translate(240.502 8.956)">
      <g id="Grupo_928" data-name="Grupo 928" transform="translate(-256 -18.623)">
        <path id="Caminho_307" data-name="Caminho 307" d="M69.475,63.626,61.13,49.417,53.193,35.893V19.94h.993a4.683,4.683,0,1,0,0-9.367c-1.339-.137-13.516,0-20.579,0a4.683,4.683,0,0,0,0,9.367H34.6V35.9L26.3,50.025l-7.985,13.6a5.951,5.951,0,0,0,5.132,8.966H64.343a5.951,5.951,0,0,0,5.132-8.964ZM30.911,15.259a2.7,2.7,0,0,1,2.7-2.7H54.186a2.7,2.7,0,0,1,0,5.393H33.607a2.7,2.7,0,0,1-2.7-2.7Zm5.341,21.747a.994.994,0,0,0,.336-.745V19.942H51.206V36.26a.994.994,0,0,0,.336.745l6.707,11.424a29.484,29.484,0,0,0-14.658.9,27.481,27.481,0,0,1-14.909.568Zm28.092,33.6H23.45a3.965,3.965,0,0,1-3.419-5.972l7.6-12.943a29.471,29.471,0,0,0,16.57-.468,27.511,27.511,0,0,1,15.424-.447l8.136,13.858a3.965,3.965,0,0,1-3.419,5.972Z" transform="translate(0 0)" fill="#8d4bba" stroke="#8d4bba" stroke-width="1"/>
        <path id="Caminho_308" data-name="Caminho 308" d="M69.891,95.75a5.642,5.642,0,1,0,5.641,5.642A5.642,5.642,0,0,0,69.891,95.75Zm0,9.3a3.655,3.655,0,1,1,3.654-3.654A3.655,3.655,0,0,1,69.891,105.046Z" transform="translate(-20.211 -41.466)" fill="#8d4bba" stroke="#8d4bba" stroke-width="1"/>
        <path id="Caminho_309" data-name="Caminho 309" d="M47.653,100a3.779,3.779,0,1,0,3.779,3.779A3.779,3.779,0,0,0,47.653,100Zm0,5.571a1.792,1.792,0,1,1,1.792-1.792A1.792,1.792,0,0,1,47.653,105.571Z" transform="translate(-11.403 -43.303)" fill="#8d4bba" stroke="#8d4bba" stroke-width="1"/>
      </g>
    </g>
  </g>
</svg>
