<svg xmlns="http://www.w3.org/2000/svg" width="16.527" height="21.519" viewBox="0 0 16.527 21.519">
  <g id="light-bulb_2_" data-name="light-bulb (2)" transform="translate(-61.5 -10.5)">
    <g id="Grupo_339" data-name="Grupo 339" transform="translate(62 11)">
      <path id="Caminho_268" data-name="Caminho 268" d="M144.875,104.148a4.745,4.745,0,0,0-3.5-1.329,4.815,4.815,0,0,0-4.578,4.75,4.754,4.754,0,0,0,1.1,3.061,6.907,6.907,0,0,1,1.6,4.41s-.108.736.416.736h3.3c.536,0,.416-.736.416-.736a7.192,7.192,0,0,1,1.669-4.49,4.764,4.764,0,0,0-.428-6.4Zm-.224,5.883a8.039,8.039,0,0,0-1.849,4.914h-2.465a7.75,7.75,0,0,0-1.793-4.846,3.934,3.934,0,0,1-.908-2.525,3.977,3.977,0,0,1,3.778-3.922,3.932,3.932,0,0,1,3.238,6.379Z" transform="translate(-133.806 -99.142)" fill="#8d4bba" stroke="#8d4bba" stroke-width="1"/>
      <path id="Caminho_269" data-name="Caminho 269" d="M351.753,64.848a.413.413,0,0,0-.588,0l-1.016,1.016a.416.416,0,0,0,.588.588l1.016-1.016A.413.413,0,0,0,351.753,64.848Z" transform="translate(-338.499 -62.575)" fill="#8d4bba" stroke="#8d4bba" stroke-width="1"/>
      <path id="Caminho_270" data-name="Caminho 270" d="M207.746,440.9h-3.33a.416.416,0,0,0,0,.832h3.33a.416.416,0,0,0,0-.832Z" transform="translate(-198.317 -423.239)" fill="#8d4bba" stroke="#8d4bba" stroke-width="1"/>
      <path id="Caminho_271" data-name="Caminho 271" d="M222.285,480.1h-2.069a.416.416,0,1,0,0,.832h2.069a.416.416,0,1,0,0-.832Z" transform="translate(-213.485 -460.414)" fill="#8d4bba" stroke="#8d4bba" stroke-width="1"/>
      <path id="Caminho_272" data-name="Caminho 272" d="M246.016,13.269a.416.416,0,0,0,.416-.416V11.416a.416.416,0,0,0-.832,0v1.437A.413.413,0,0,0,246.016,13.269Z" transform="translate(-238.253 -11)" fill="#8d4bba" stroke="#8d4bba" stroke-width="1"/>
      <path id="Caminho_273" data-name="Caminho 273" d="M117.489,66.553a.413.413,0,0,0,0-.588l-1.016-1.016a.416.416,0,0,0-.588.588l1.016,1.016A.42.42,0,0,0,117.489,66.553Z" transform="translate(-113.611 -62.671)" fill="#8d4bba" stroke="#8d4bba" stroke-width="1"/>
      <path id="Caminho_274" data-name="Caminho 274" d="M395.153,194.6h-1.437a.416.416,0,0,0,0,.832h1.437a.416.416,0,0,0,0-.832Z" transform="translate(-380.042 -187.253)" fill="#8d4bba" stroke="#8d4bba" stroke-width="1"/>
      <path id="Caminho_275" data-name="Caminho 275" d="M63.853,194.6H62.416a.416.416,0,0,0,0,.832h1.437a.416.416,0,1,0,0-.832Z" transform="translate(-62 -187.253)" fill="#8d4bba" stroke="#8d4bba" stroke-width="1"/>
    </g>
  </g>
</svg>
