<svg xmlns="http://www.w3.org/2000/svg" width="54.868" height="47.552" viewBox="0 0 54.868 47.552">
  <g id="meeting_2_" data-name="meeting (2)" transform="translate(-4 -72)">
    <g id="Grupo_375" data-name="Grupo 375" transform="translate(4 72)">
      <g id="Grupo_374" data-name="Grupo 374">
        <path id="Caminho_272" data-name="Caminho 272" d="M55.028,83.048a6.4,6.4,0,1,0-7.872.718,4.571,4.571,0,0,0-2.005,3.78v6.4H41.493V89.375a6.407,6.407,0,0,0-5.642-6.352,6.4,6.4,0,1,0-8.834,0,6.407,6.407,0,0,0-5.642,6.352v4.572H17.717v-6.4a4.571,4.571,0,0,0-2.005-3.78,6.4,6.4,0,1,0-7.872-.718A4.568,4.568,0,0,0,4,87.546v13.717a4.581,4.581,0,0,0,3.658,4.48v13.809H9.487V105.835h8.23v12.8a.915.915,0,0,0,.914.914h5.487a.915.915,0,0,0,.914-.914V104.006H30.52v13.717H26.862v1.829h9.145v-1.829H32.348V104.006h5.487v14.631a.915.915,0,0,0,.914.914h5.487a.915.915,0,0,0,.914-.914v-12.8h8.23v13.717H55.21V105.743a4.58,4.58,0,0,0,3.658-4.48V87.546A4.568,4.568,0,0,0,55.028,83.048ZM46.065,78.4a4.572,4.572,0,1,1,4.572,4.572A4.578,4.578,0,0,1,46.065,78.4Zm-19.2,0a4.572,4.572,0,1,1,4.572,4.572A4.578,4.578,0,0,1,26.862,78.4Zm6,6.4-1.424,3.8L30.01,84.8ZM23.2,89.375A4.578,4.578,0,0,1,27.776,84.8h.281l2.521,6.722a.915.915,0,0,0,1.713,0l2.52-6.722h.281a4.578,4.578,0,0,1,4.572,4.572v4.572H36.006a.915.915,0,0,0-.914.914V98.52H27.776V94.862a.915.915,0,0,0-.914-.914H23.2ZM7.658,78.4a4.572,4.572,0,1,1,4.572,4.572A4.578,4.578,0,0,1,7.658,78.4ZM23.2,117.723H19.546v-12.8a.915.915,0,0,0-.914-.914H8.572a2.747,2.747,0,0,1-2.743-2.743V87.546A2.747,2.747,0,0,1,8.572,84.8h4.572a2.747,2.747,0,0,1,2.743,2.743v7.316a.915.915,0,0,0,.914.914h9.145V98.52h-12.8v-8.23H11.316v9.145a.915.915,0,0,0,.914.914h8.23a2.747,2.747,0,0,1,2.743,2.743Zm14.734-15.546H24.93a4.566,4.566,0,0,0-.814-1.829H38.752A4.566,4.566,0,0,0,37.938,102.177Zm19.1-.914a2.747,2.747,0,0,1-2.743,2.743H44.237a.915.915,0,0,0-.914.914v12.8H39.664V103.092a2.747,2.747,0,0,1,2.743-2.743h8.23a.915.915,0,0,0,.914-.914V90.289H49.723v8.23h-12.8V95.776h9.145a.915.915,0,0,0,.914-.914V87.546A2.747,2.747,0,0,1,49.723,84.8H54.3a2.747,2.747,0,0,1,2.743,2.743Z" transform="translate(-4 -72)" fill="#8d4bba"/>
      </g>
    </g>
  </g>
</svg>
