<svg id="off" xmlns="http://www.w3.org/2000/svg" width="19.403" height="19.546" viewBox="0 0 19.403 19.546">
  <path id="Caminho_226" data-name="Caminho 226" d="M8.276,9.086V1.514a1.514,1.514,0,0,1,3.029,0V9.086a1.514,1.514,0,0,1-3.029,0Zm7.517-6.866A1.136,1.136,0,0,0,14.387,4a7.43,7.43,0,1,1-9.194,0A1.136,1.136,0,1,0,3.785,2.223a9.7,9.7,0,1,0,12.008,0Z" transform="translate(-0.089)" fill="#7ccdff"/>
</svg>
