<svg xmlns="http://www.w3.org/2000/svg" width="25.089" height="35.682" viewBox="0 0 25.089 35.682">
  <g id="placeholder_2_" data-name="placeholder (2)" transform="translate(-76)">
    <g id="Grupo_336" data-name="Grupo 336" transform="translate(76)">
      <g id="Grupo_335" data-name="Grupo 335">
        <path id="Caminho_266" data-name="Caminho 266" d="M88.544,0A12.547,12.547,0,0,0,77.873,19.141L87.83,35.188a1.045,1.045,0,0,0,.888.494h.008a1.045,1.045,0,0,0,.889-.508l9.7-16.2A12.547,12.547,0,0,0,88.544,0Zm8.981,17.9L88.7,32.628,79.65,18.039A10.461,10.461,0,1,1,97.525,17.9Z" transform="translate(-76)" fill="#8d4bba"/>
      </g>
    </g>
    <g id="Grupo_338" data-name="Grupo 338" transform="translate(82.272 6.272)">
      <g id="Grupo_337" data-name="Grupo 337">
        <path id="Caminho_267" data-name="Caminho 267" d="M172.272,90a6.272,6.272,0,1,0,6.272,6.272A6.279,6.279,0,0,0,172.272,90Zm0,10.468a4.2,4.2,0,1,1,4.188-4.2A4.2,4.2,0,0,1,172.272,100.468Z" transform="translate(-166 -90)" fill="#8d4bba"/>
      </g>
    </g>
  </g>
</svg>
