<svg xmlns="http://www.w3.org/2000/svg" width="44" height="45.193" viewBox="0 0 44 45.193">
  <g id="Grupo_212" data-name="Grupo 212" transform="translate(0.461 1.493)">
    <g id="Retângulo_50" data-name="Retângulo 50" transform="translate(-0.461 6.7)" fill="#fff" stroke="#8d4bba" stroke-width="3">
      <rect width="13" height="37" rx="4" stroke="none"/>
      <rect x="1.5" y="1.5" width="10" height="34" rx="2.5" fill="none"/>
    </g>
    <g id="Retângulo_51" data-name="Retângulo 51" transform="translate(15.539 15.7)" fill="#fff" stroke="#8d4bba" stroke-width="3">
      <rect width="13" height="28" rx="4" stroke="none"/>
      <rect x="1.5" y="1.5" width="10" height="25" rx="2.5" fill="none"/>
    </g>
    <g id="Retângulo_52" data-name="Retângulo 52" transform="translate(30.539 24.7)" fill="#fff" stroke="#8d4bba" stroke-width="3">
      <rect width="13" height="19" rx="4" stroke="none"/>
      <rect x="1.5" y="1.5" width="10" height="16" rx="2.5" fill="none"/>
    </g>
    <path id="Caminho_214" data-name="Caminho 214" d="M2658.23,3963.368c9.432-2.236,8.629,7.557,16.485,9.707s13.947-2.321,13.866,10.709" transform="translate(-2652.091 -3963.039)" fill="none" stroke="#8d4bba" stroke-linecap="round" stroke-linejoin="round" stroke-width="3"/>
    <path id="Caminho_215" data-name="Caminho 215" d="M2703.6,3992.934l3.719,3.72,3.72-3.72" transform="translate(-2670.817 -3975.205)" fill="none" stroke="#8d4bba" stroke-linecap="round" stroke-linejoin="round" stroke-width="2"/>
  </g>
</svg>
