<svg xmlns="http://www.w3.org/2000/svg" width="18.874" height="18.529" viewBox="0 0 18.874 18.529">
  <g id="Grupo_333" data-name="Grupo 333" transform="translate(-8.173 -54)">
    <g id="Grupo_12" data-name="Grupo 12" transform="translate(9.174 53.657)">
      <g id="Elipse_27" data-name="Elipse 27" transform="translate(3.348 0.343)" fill="none" stroke="#8d4bba" stroke-width="2">
        <circle cx="5" cy="5" r="5" stroke="none"/>
        <circle cx="5" cy="5" r="4" fill="none"/>
      </g>
      <path id="Caminho_94" data-name="Caminho 94" d="M6454.363,385.181a8.465,8.465,0,0,0-8.429,7.681h6.8" transform="translate(-6445.934 -374.99)" fill="none" stroke="#8d4bba" stroke-width="2"/>
      <path id="Caminho_99" data-name="Caminho 99" d="M6445.934,385.181a8.465,8.465,0,0,1,8.429,7.681h-6.8" transform="translate(-6437.489 -374.99)" fill="none" stroke="#8d4bba" stroke-width="2"/>
    </g>
  </g>
</svg>
