<svg xmlns="http://www.w3.org/2000/svg" xmlns:xlink="http://www.w3.org/1999/xlink" width="57" height="71" viewBox="0 0 57 71">
  <defs>
    <clipPath id="clip-Prancheta_12">
      <rect width="57" height="71"/>
    </clipPath>
  </defs>
  <g id="Prancheta_12" data-name="Prancheta – 12" clip-path="url(#clip-Prancheta_12)">
    <g id="web-design" transform="translate(1.231 7.429)">
      <g id="Grupo_10" data-name="Grupo 10" transform="translate(26.472 45.641)">
        <g id="Grupo_9" data-name="Grupo 9">
          <rect id="Retângulo_3" data-name="Retângulo 3" width="1.826" height="1.826" fill="#8d4bba" stroke="#8d4bba" stroke-width="1"/>
        </g>
      </g>
      <g id="Grupo_12" data-name="Grupo 12" transform="translate(0)">
        <g id="Grupo_11" data-name="Grupo 11">
          <path id="Caminho_51" data-name="Caminho 51" d="M53.856,47.466h-.913V14.605a3.651,3.651,0,0,0-3.651-3.651H43.815v-7.3A3.651,3.651,0,0,0,40.164,0H14.605a3.651,3.651,0,0,0-3.651,3.651v7.3H5.477a3.651,3.651,0,0,0-3.651,3.651V47.466H.913A.913.913,0,0,0,0,48.379v2.738a3.651,3.651,0,0,0,3.651,3.651H51.118a3.651,3.651,0,0,0,3.651-3.651V48.379A.913.913,0,0,0,53.856,47.466ZM12.779,3.651a1.826,1.826,0,0,1,1.826-1.826H40.164a1.826,1.826,0,0,1,1.826,1.826V7.3H12.779Zm0,5.477h29.21V35.6a1.826,1.826,0,0,1-1.826,1.826H14.605A1.826,1.826,0,0,1,12.779,35.6Zm1.826,30.123H40.164A3.651,3.651,0,0,0,43.815,35.6V16.431h3.651V41.989H7.3V16.431h3.651V35.6A3.651,3.651,0,0,0,14.605,39.251ZM3.651,14.605a1.826,1.826,0,0,1,1.826-1.826h5.477v1.826H6.39a.913.913,0,0,0-.913.913V42.9a.913.913,0,0,0,.913.913H48.379a.913.913,0,0,0,.913-.913V15.518a.913.913,0,0,0-.913-.913H43.815V12.779h5.477a1.826,1.826,0,0,1,1.826,1.826V47.466H35.6a.913.913,0,0,0-.645.267L33.4,49.292H21.373l-1.558-1.559a.913.913,0,0,0-.645-.267H3.651ZM52.943,51.118a1.826,1.826,0,0,1-1.826,1.826H3.651a1.826,1.826,0,0,1-1.826-1.826V49.292H18.791l1.558,1.558a.913.913,0,0,0,.645.267H33.774a.913.913,0,0,0,.645-.267l1.558-1.558H52.943Z" transform="translate(0)" fill="#8d4bba" stroke="#8d4bba" stroke-width="1"/>
        </g>
      </g>
      <g id="Grupo_20" data-name="Grupo 20" transform="translate(14.605 3.651)">
        <g id="Grupo_19" data-name="Grupo 19">
          <rect id="Retângulo_7" data-name="Retângulo 7" width="1.826" height="1.826" fill="#8d4bba" stroke="#8d4bba" stroke-width="1"/>
        </g>
      </g>
      <g id="Grupo_22" data-name="Grupo 22" transform="translate(18.256 3.651)">
        <g id="Grupo_21" data-name="Grupo 21">
          <rect id="Retângulo_8" data-name="Retângulo 8" width="1.826" height="1.826" fill="#8d4bba" stroke="#8d4bba" stroke-width="1"/>
        </g>
      </g>
      <g id="Grupo_24" data-name="Grupo 24" transform="translate(21.908 3.651)">
        <g id="Grupo_23" data-name="Grupo 23">
          <rect id="Retângulo_9" data-name="Retângulo 9" width="1.826" height="1.826" fill="#8d4bba" stroke="#8d4bba" stroke-width="1"/>
        </g>
      </g>
      <g id="Grupo_28" data-name="Grupo 28" transform="translate(18.256 19.194)">
        <g id="Grupo_27" data-name="Grupo 27" transform="translate(0 0)">
          <path id="Caminho_52" data-name="Caminho 52" d="M173.679,123.223l-1.217-1.623-4.057,3.043a1.014,1.014,0,0,0,0,1.623l4.057,3.043,1.217-1.623-2.975-2.231Z" transform="translate(-167.999 -121.6)" fill="#8d4bba" stroke="#8d4bba" stroke-width="1"/>
        </g>
      </g>
      <g id="Grupo_30" data-name="Grupo 30" transform="translate(30.833 19.194)">
        <g id="Grupo_29" data-name="Grupo 29" transform="translate(0 0)">
          <path id="Caminho_53" data-name="Caminho 53" d="M272.677,124.846a1.018,1.018,0,0,0-.2-.2l-4.057-3.043-1.217,1.623,2.975,2.231-2.975,2.231,1.217,1.623,4.057-3.043A1.014,1.014,0,0,0,272.677,124.846Z" transform="translate(-267.2 -121.6)" fill="#8d4bba" stroke="#8d4bba" stroke-width="1"/>
        </g>
      </g>
      <g id="Grupo_32" data-name="Grupo 32" transform="translate(24.414 17.603)">
        <g id="Grupo_31" data-name="Grupo 31" transform="translate(0 0)">
          <rect id="Retângulo_11" data-name="Retângulo 11" width="10.923" height="2.028" transform="translate(0 10.141) rotate(-68.191)" fill="#8d4bba" stroke="#8d4bba" stroke-width="1"/>
        </g>
      </g>
    </g>
  </g>
</svg>
