<svg xmlns="http://www.w3.org/2000/svg" width="31.266" height="17.348" viewBox="0 0 31.266 17.348">
  <g id="eye_1_" data-name="eye (1)" transform="translate(1.08 1)">
    <g id="Grupo_224" data-name="Grupo 224" transform="translate(0 0)">
      <g id="Grupo_223" data-name="Grupo 223" transform="translate(0 0)">
        <path id="Caminho_220" data-name="Caminho 220" d="M28.887,128.105c-.26-.29-6.509-7.105-14.335-7.105S.477,127.816.217,128.105a.853.853,0,0,0,0,1.137c.26.29,6.509,7.105,14.335,7.105s14.075-6.816,14.335-7.105A.853.853,0,0,0,28.887,128.105Zm-14.335,6.538a5.969,5.969,0,1,1,5.969-5.969A5.976,5.976,0,0,1,14.552,134.643Z" transform="translate(0.001 -121)" fill="none" stroke="#fff" stroke-width="2"/>
      </g>
    </g>
  </g>
</svg>
